…
    ## tmap mode set to plotting

### Clean up names associated with Fuel Stations

``` r
kcmo_fuel_pts_prjd %>%
  group_by(name) %>%
  count() %>%
  arrange(desc(n))
```

    ## # A tibble: 30 x 3
    ## # Groups:   name [30]
    ##    name                n                                                geometry
    ##    <chr>           <int>                                        <MULTIPOINT [m]>
    ##  1 <NA>               44 ((826752.2 354496.6), (826766.6 354434.5), (826966.7 3…
    ##  2 Phillips 66        32 ((827166.5 353635.4), (831776.5 348021.3), (834306.7 3…
    ##  3 QuikTrip           28 ((834443.7 337802.2), (835917.8 341837.1), (840692.3 3…
    ##  4 BP                 25 ((834279.9 347333), (836323 340244.4), (840653.6 31159…
    ##  5 Conoco             12 ((836366.3 340256), (843346.6 325813.2), (845791.7 333…
    ##  6 Shell              12 ((836250.9 341309.3), (837613.2 337768.8), (842129.1 3…
    ##  7 Sinclair            6 ((837160.6 339421.5), (840675.5 313646.1), (842942.1 3…
    ##  8 7-Eleven            5 ((841777.8 310747.7), (843133.6 322083.2), (844741 326…
    ##  9 Hy-Vee Gas          3 ((837354 341815.5), (843199.3 336133.3), (854582.7 341…
    ## 10 Casey's Genera…     2              ((843080.4 348137.1), (843535.3 346516.8))
    ## # … with 20 more rows
…
